<svg width="50" height="50" viewBox="0 0 50 50" version="1.1" xmlns="http://www.w3.org/2000/svg" xmlns:xlink="http://www.w3.org/1999/xlink">
<title>facebook</title>
<desc>Created using Figma</desc>
<g id="Canvas" transform="translate(2154 -862)">
<g id="facebook">
<g id="Group">
<g id="Vector">
<use xlink:href="#path0_fill" transform="translate(-2154 862)" fill="#3B5998"/>
</g>
<g id="Vector">
<use xlink:href="#path1_fill" transform="translate(-2137.15 871.699)" fill="#FFFFFF"/>
</g>
</g>
</g>
</g>
<defs>
<path id="path0_fill" d="M 25 50C 38.8071 50 50 38.8071 50 25C 50 11.1929 38.8071 0 25 0C 11.1929 0 0 11.1929 0 25C 0 38.8071 11.1929 50 25 50Z"/>
<path id="path1_fill" d="M 14.4341 16.28L 9.97317 16.28L 9.97317 32.6228L 3.21446 32.6228L 3.21446 16.28L 1.22401e-07 16.28L 1.22401e-07 10.5365L 3.21446 10.5365L 3.21446 6.81976C 3.21446 4.16191 4.47699 2.17602e-07 10.0333 2.17602e-07L 15.0397 0.0209452L 15.0397 5.59601L 11.4073 5.59601C 10.8114 5.59601 9.97362 5.8937 9.97362 7.16157L 9.97362 10.5418L 15.0246 10.5418L 14.4341 16.28Z"/>
</defs>
</svg>
