<svg width="50" height="50" viewBox="0 0 50 50" version="1.1" xmlns="http://www.w3.org/2000/svg" xmlns:xlink="http://www.w3.org/1999/xlink">
<title>instagram</title>
<desc>Created using Figma</desc>
<g id="Canvas" transform="translate(1955 -862)">
<g id="instagram">
<g id="Vector">
<use xlink:href="#path0_fill" transform="translate(-1955 862)" fill="url(#paint0_radial)"/>
</g>
<g id="Vector">
<use xlink:href="#path1_fill" transform="translate(-1937.74 879.319)" fill="#FFFFFF"/>
</g>
<g id="Vector">
<use xlink:href="#path2_fill" transform="translate(-1923.84 877.263)" fill="#FFFFFF"/>
</g>
<g id="Vector">
<use xlink:href="#path3_fill" transform="translate(-1945.04 872.031)" fill="#FFFFFF"/>
</g>
</g>
</g>
<defs>
<radialGradient id="paint0_radial" cx="0.5" cy="0.5" r="0.5" gradientUnits="userSpaceOnUse" gradientTransform="matrix(109.635 0 0 109.635 -46.1924 -6.94245)">
<stop offset="0.0651341" stop-color="#F9ED32"/>
<stop offset="0.6207" stop-color="#EE2A7B"/>
<stop offset="1" stop-color="#002AFF"/>
</radialGradient>
<path id="path0_fill" d="M 25 0C 11.1938 0 0 11.1938 0 25C 0 38.8063 11.1938 50 25 50C 38.8063 50 50 38.8063 50 25C 50 11.1938 38.8063 0 25 0Z"/>
<path id="path1_fill" d="M 7.74375 15.4937C 12.0125 15.4937 15.4875 12.0188 15.4875 7.75C 15.4875 3.48125 12.0125 3.8147e-07 7.74375 3.8147e-07C 3.475 3.8147e-07 3.8147e-07 3.475 3.8147e-07 7.74375C 3.8147e-07 12.0188 3.475 15.4937 7.74375 15.4937ZM 7.74375 3.275C 10.2125 3.275 12.2187 5.28125 12.2187 7.75C 12.2187 10.2188 10.2125 12.225 7.74375 12.225C 5.28125 12.225 3.26875 10.2188 3.26875 7.75C 3.26875 5.28125 5.28125 3.275 7.74375 3.275Z"/>
<path id="path2_fill" d="M 1.83125 3.6625C 2.84375 3.6625 3.6625 2.8375 3.6625 1.83125C 3.6625 0.825 2.8375 -1.90735e-07 1.83125 -1.90735e-07C 0.818751 -1.90735e-07 -1.52588e-06 0.825 -1.52588e-06 1.83125C -1.52588e-06 2.8375 0.818751 3.6625 1.83125 3.6625Z"/>
<path id="path3_fill" d="M 7.5875 30.075L 22.4875 30.075C 26.6688 30.075 30.075 26.675 30.075 22.4875L 30.075 7.5875C 30.075 3.40625 26.675 1.77636e-15 22.4875 1.77636e-15L 7.5875 1.77636e-15C 3.40625 1.77636e-15 -3.8147e-07 3.40625 -3.8147e-07 7.5875L -3.8147e-07 22.4875C -3.8147e-07 26.6687 3.4 30.075 7.5875 30.075ZM 3.275 7.5875C 3.275 5.20625 5.2125 3.275 7.5875 3.275L 22.4875 3.275C 24.8688 3.275 26.8 5.2125 26.8 7.5875L 26.8 22.4875C 26.8 24.8687 24.8625 26.8 22.4875 26.8L 7.5875 26.8C 5.20625 26.8 3.275 24.8625 3.275 22.4875L 3.275 7.5875Z"/>
</defs>
</svg>
