<svg width="20" height="20" viewBox="0 0 20 20" version="1.1" xmlns="http://www.w3.org/2000/svg" xmlns:xlink="http://www.w3.org/1999/xlink">
<title>Vector</title>
<desc>Created using Figma</desc>
<g id="Canvas" transform="translate(-848 360)">
<g id="Vector">
<use xlink:href="#path0_fill" transform="translate(848 -360)" fill="#BDBDBD"/>
</g>
</g>
<defs>
<path id="path0_fill" d="M 10 18C 12.1217 18 14.1566 17.1571 15.6569 15.6569C 17.1571 14.1566 18 12.1217 18 10C 18 7.87827 17.1571 5.84344 15.6569 4.34315C 14.1566 2.84285 12.1217 2 10 2C 7.87827 2 5.84344 2.84285 4.34315 4.34315C 2.84285 5.84344 2 7.87827 2 10C 2 12.1217 2.84285 14.1566 4.34315 15.6569C 5.84344 17.1571 7.87827 18 10 18ZM 10 0C 11.3132 4.44089e-16 12.6136 0.258658 13.8268 0.761205C 15.0401 1.26375 16.1425 2.00035 17.0711 2.92893C 17.9997 3.85752 18.7362 4.95991 19.2388 6.17317C 19.7413 7.38642 20 8.68678 20 10C 20 12.6522 18.9464 15.1957 17.0711 17.0711C 15.1957 18.9464 12.6522 20 10 20C 4.47 20 0 15.5 0 10C 4.44089e-16 7.34784 1.05357 4.8043 2.92893 2.92893C 4.8043 1.05357 7.34784 1.77636e-15 10 0ZM 10.5 5L 10.5 10.25L 15 12.92L 14.25 14.15L 9 11L 9 5L 10.5 5Z"/>
</defs>
</svg>
