<svg width="18" height="17" viewBox="0 0 18 17" version="1.1" xmlns="http://www.w3.org/2000/svg" xmlns:xlink="http://www.w3.org/1999/xlink">
<title>sta_icon</title>
<desc>Created using Figma</desc>
<g id="Canvas" transform="translate(-2224 -503)">
<g id="sta_icon">
<use xlink:href="#path0_fill" transform="translate(2223 502)" fill="#FFDE00"/>
</g>
</g>
<defs>
<path id="path0_fill" d="M 9.48326 15.5819C 9.80106 15.3901 10.1989 15.3901 10.5167 15.5819L 14.151 17.7754C 14.9083 18.2325 15.8425 17.5535 15.6416 16.692L 14.6771 12.5578C 14.5928 12.1963 14.7156 11.8178 14.9962 11.5748L 18.2121 8.7889C 18.8801 8.21013 18.5239 7.11271 17.6432 7.03677L 13.4095 6.67169C 13.0406 6.63989 12.7195 6.40691 12.5749 6.06612L 10.9205 2.16859C 10.5757 1.35623 9.42432 1.35623 9.07949 2.16859L 7.42511 6.06612C 7.28045 6.40691 6.95936 6.63989 6.59051 6.67169L 2.35383 7.03703C 1.4736 7.11293 1.11704 8.20947 1.78428 8.78856L 4.99532 11.5754C 5.27505 11.8182 5.39768 12.1957 5.31401 12.5565L 4.35429 16.6957C 4.15464 17.5567 5.08842 18.2344 5.84518 17.7777L 9.48326 15.5819Z"/>
</defs>
</svg>
