<svg width="50" height="5" viewBox="0 0 50 5" version="1.1" xmlns="http://www.w3.org/2000/svg" xmlns:xlink="http://www.w3.org/1999/xlink">
<title>webasyst</title>
<desc>Created using Figma</desc>
<g id="Canvas" transform="translate(-980 -1699)">
<g id="webasyst">
<g id="Ellipse 8">
<use xlink:href="#path0_fill" transform="translate(980 1699)" fill="#FE300F"/>
</g>
<g id="Ellipse 8">
<use xlink:href="#path0_fill" transform="translate(989 1699)" fill="#25B2FE"/>
</g>
<g id="Ellipse 8">
<use xlink:href="#path0_fill" transform="translate(998 1699)" fill="#F2DB47"/>
</g>
<g id="Ellipse 8">
<use xlink:href="#path0_fill" transform="translate(1007 1699)" fill="#F5769E"/>
</g>
<g id="Ellipse 8">
<use xlink:href="#path0_fill" transform="translate(1016 1699)" fill="#9DDB39"/>
</g>
<g id="Ellipse 8">
<use xlink:href="#path0_fill" transform="translate(1025 1699)" fill="#4ACED0"/>
</g>
</g>
</g>
<defs>
<path id="path0_fill" d="M 5 2.5C 5 3.88071 3.88071 5 2.5 5C 1.11929 5 0 3.88071 0 2.5C 0 1.11929 1.11929 0 2.5 0C 3.88071 0 5 1.11929 5 2.5Z"/>
</defs>
</svg>
