<svg width="50" height="50" viewBox="0 0 50 50" version="1.1" xmlns="http://www.w3.org/2000/svg" xmlns:xlink="http://www.w3.org/1999/xlink">
<title>youtube</title>
<desc>Created using Figma</desc>
<g id="Canvas" transform="translate(1889 -862)">
<g id="youtube">
<g id="XMLID 59">
<use xlink:href="#path0_fill" transform="translate(-1889 862)" fill="#F61C0D"/>
</g>
<g id="Vector">
<use xlink:href="#path1_fill" transform="translate(-1879.46 876.062)" fill="#FFFFFF"/>
</g>
</g>
</g>
<defs>
<path id="path0_fill" d="M 50 25C 50 38.8063 38.8063 50 25 50C 11.1938 50 0 38.8063 0 25C 0 11.1938 11.1938 0 25 0C 38.8063 0 50 11.1938 50 25Z"/>
<path id="path1_fill" d="M 24.4937 0L 6.41875 0C 2.875 0 7.62939e-07 2.875 7.62939e-07 6.41875L 7.62939e-07 15.4562C 7.62939e-07 19 2.875 21.875 6.41875 21.875L 24.4937 21.875C 28.0375 21.875 30.9125 19 30.9125 15.4562L 30.9125 6.41875C 30.9125 2.875 28.0375 0 24.4937 0ZM 20.15 11.375L 11.6937 15.4062C 11.4687 15.5125 11.2062 15.35 11.2062 15.1L 11.2062 6.7875C 11.2062 6.5375 11.475 6.36875 11.7 6.4875L 20.1562 10.7687C 20.4062 10.8937 20.4062 11.2563 20.15 11.375Z"/>
</defs>
</svg>
