<svg width="18" height="18" viewBox="0 0 18 18" version="1.1" xmlns="http://www.w3.org/2000/svg" xmlns:xlink="http://www.w3.org/1999/xlink">
<title>search_icon</title>
<desc>Created using Figma</desc>
<g id="Canvas" transform="translate(-6651 376)">
<g id="search_icon">
<use xlink:href="#path0_fill" transform="translate(6651 -376)" fill="#BE8D7C"/>
</g>
</g>
<defs>
<path id="path0_fill" d="M 6.5 0C 8.22391 1.77636e-15 9.87721 0.684819 11.0962 1.90381C 12.3152 3.12279 13 4.77609 13 6.5C 13 8.11 12.41 9.59 11.44 10.73L 11.71 11L 12.5 11L 17.5 16L 16 17.5L 11 12.5L 11 11.71L 10.73 11.44C 9.59 12.41 8.11 13 6.5 13C 4.77609 13 3.12279 12.3152 1.90381 11.0962C 0.684819 9.87721 4.44089e-16 8.22391 -8.88178e-16 6.5C -4.44089e-16 4.77609 0.684819 3.12279 1.90381 1.90381C 3.12279 0.684819 4.77609 1.77636e-15 6.5 0ZM 6.5 2C 4 2 2 4 2 6.5C 2 9 4 11 6.5 11C 9 11 11 9 11 6.5C 11 4 9 2 6.5 2Z"/>
</defs>
</svg>
