<svg width="20" height="20" viewBox="0 0 20 20" version="1.1" xmlns="http://www.w3.org/2000/svg" xmlns:xlink="http://www.w3.org/1999/xlink">
<title>password_icon</title>
<desc>Created using Figma</desc>
<g id="Canvas" transform="translate(-7498 226)">
<g id="password_icon">
<use xlink:href="#path0_fill" transform="translate(7498 -226)" fill="#F1F8FF"/>
</g>
</g>
<defs>
<path id="path0_fill" d="M 15 5L 20 5L 20 15L 15 15L 15 17C 15 17.2652 15.1054 17.5196 15.2929 17.7071C 15.4804 17.8946 15.7348 18 16 18L 18 18L 18 20L 15.5 20C 14.95 20 14 19.55 14 19C 14 19.55 13.05 20 12.5 20L 10 20L 10 18L 12 18C 12.2652 18 12.5196 17.8946 12.7071 17.7071C 12.8946 17.5196 13 17.2652 13 17L 13 3C 13 2.73478 12.8946 2.48043 12.7071 2.29289C 12.5196 2.10536 12.2652 2 12 2L 10 2L 10 0L 12.5 0C 13.05 0 14 0.45 14 1C 14 0.45 14.95 0 15.5 0L 18 0L 18 2L 16 2C 15.7348 2 15.4804 2.10536 15.2929 2.29289C 15.1054 2.48043 15 2.73478 15 3L 15 5ZM 0 5L 11 5L 11 7L 2 7L 2 13L 11 13L 11 15L 0 15L 0 5ZM 18 13L 18 7L 15 7L 15 13L 18 13ZM 6.5 10C 6.5 9.60218 6.34196 9.22064 6.06066 8.93934C 5.77936 8.65804 5.39782 8.5 5 8.5C 4.60218 8.5 4.22064 8.65804 3.93934 8.93934C 3.65804 9.22064 3.5 9.60218 3.5 10C 3.5 10.3978 3.65804 10.7794 3.93934 11.0607C 4.22064 11.342 4.60218 11.5 5 11.5C 5.39782 11.5 5.77936 11.342 6.06066 11.0607C 6.34196 10.7794 6.5 10.3978 6.5 10ZM 11 8.89C 10.39 8.33 9.44 8.38 8.88 9C 8.32 9.6 8.37 10.55 9 11.11C 9.55 11.63 10.43 11.63 11 11.11L 11 8.89Z"/>
</defs>
</svg>
