<svg width="18" height="18" viewBox="0 0 18 18" version="1.1" xmlns="http://www.w3.org/2000/svg" xmlns:xlink="http://www.w3.org/1999/xlink">
<title>phone_icon</title>
<desc>Created using Figma</desc>
<g id="Canvas" transform="translate(-10474 -31)">
<g id="phone_icon">
<use xlink:href="#path0_fill" transform="translate(10474 31)" fill="#F1F8FF"/>
</g>
</g>
<defs>
<path id="path0_fill" d="M 3.62 7.79C 5.06 10.62 7.38 12.94 10.21 14.38L 12.41 12.18C 12.69 11.9 13.08 11.82 13.43 11.93C 14.55 12.3 15.75 12.5 17 12.5C 17.2652 12.5 17.5196 12.6054 17.7071 12.7929C 17.8946 12.9804 18 13.2348 18 13.5L 18 17C 18 17.2652 17.8946 17.5196 17.7071 17.7071C 17.5196 17.8946 17.2652 18 17 18C 12.4913 18 8.1673 16.2089 4.97918 13.0208C 1.79107 9.8327 0 5.50868 -8.88178e-16 1C -1.77636e-15 0.734784 0.105357 0.48043 0.292893 0.292893C 0.48043 0.105357 0.734784 4.44089e-16 1 0L 4.5 0C 4.76522 4.44089e-16 5.01957 0.105357 5.20711 0.292893C 5.39464 0.48043 5.5 0.734784 5.5 1C 5.5 2.25 5.7 3.45 6.07 4.57C 6.18 4.92 6.1 5.31 5.82 5.59L 3.62 7.79Z"/>
</defs>
</svg>
