<svg width="18" height="19" viewBox="0 0 18 19" version="1.1" xmlns="http://www.w3.org/2000/svg" xmlns:xlink="http://www.w3.org/1999/xlink">
<title>city_icon</title>
<desc>Created using Figma</desc>
<g id="Canvas" transform="translate(-10899 5)">
<g id="city_icon">
<use xlink:href="#path0_fill" transform="translate(10899 -5)" fill="#FFF3F2"/>
</g>
</g>
<defs>
<path id="path0_fill" d="M 16 13L 14 13L 14 11L 16 11L 16 13ZM 16 17L 14 17L 14 15L 16 15L 16 17ZM 10 5L 8 5L 8 3L 10 3L 10 5ZM 10 9L 8 9L 8 7L 10 7L 10 9ZM 10 13L 8 13L 8 11L 10 11L 10 13ZM 10 17L 8 17L 8 15L 10 15L 10 17ZM 4 9L 2 9L 2 7L 4 7L 4 9ZM 4 13L 2 13L 2 11L 4 11L 4 13ZM 4 17L 2 17L 2 15L 4 15L 4 17ZM 12 9L 12 3L 9 0L 6 3L 6 5L 0 5L 0 19L 18 19L 18 9L 12 9Z"/>
</defs>
</svg>
