<svg width="14" height="14" viewBox="0 0 14 14" version="1.1" xmlns="http://www.w3.org/2000/svg" xmlns:xlink="http://www.w3.org/1999/xlink">
<title>Vector</title>
<desc>Created using Figma</desc>
<g id="Canvas" transform="translate(-18999 210)">
<g id="Vector">
<use xlink:href="#path0_fill" transform="translate(18999 -210)" fill="#BDBDBD"/>
</g>
</g>
<defs>
<path id="path0_fill" d="M 14 1.41L 12.59 0L 7 5.59L 1.41 0L 0 1.41L 5.59 7L 0 12.59L 1.41 14L 7 8.41L 12.59 14L 14 12.59L 8.41 7L 14 1.41Z"/>
</defs>
</svg>
