<svg width="18" height="20" viewBox="0 0 18 20" version="1.1" xmlns="http://www.w3.org/2000/svg" xmlns:xlink="http://www.w3.org/1999/xlink">
<title>Vector</title>
<desc>Created using Figma</desc>
<g id="Canvas" transform="translate(-3673 -203)">
<g id="Vector">
<use xlink:href="#path0_fill" transform="translate(3673 203)" fill="#EB5757"/>
</g>
</g>
<defs>
<path id="path0_fill" d="M 0 20L 0 6L 4 6L 4 20L 0 20ZM 7 20L 7 0L 11 0L 11 20L 7 20ZM 14 20L 14 12L 18 12L 18 20L 14 20Z"/>
</defs>
</svg>
