<svg width="12" height="10" viewBox="0 0 12 10" version="1.1" xmlns="http://www.w3.org/2000/svg" xmlns:xlink="http://www.w3.org/1999/xlink">
<title>check_select</title>
<desc>Created using Figma</desc>
<g id="Canvas" transform="translate(-2552 -612)">
<g id="check_select">
<use xlink:href="#path0_fill" transform="translate(2552 612)" fill="#333333"/>
</g>
</g>
<defs>
<path id="path0_fill" d="M 12 0.966857L 3.77143 9.19543L 0 5.424L 0.966857 4.45714L 3.77143 7.25486L 11.0331 1.04632e-07L 12 0.966857Z"/>
</defs>
</svg>
