<svg width="51" height="51" viewBox="0 0 51 51" version="1.1" xmlns="http://www.w3.org/2000/svg" xmlns:xlink="http://www.w3.org/1999/xlink">
<title>payment_icon</title>
<desc>Created using Figma</desc>
<g id="Canvas" transform="translate(-848 -993)">
<g id="payment_icon">
<g id="Vector">
<use xlink:href="#path0_fill" transform="translate(852.45 993)" fill="#40596B"/>
</g>
<g id="Vector">
<use xlink:href="#path1_fill" transform="translate(852.45 1001.54)" fill="#4CDBC4"/>
</g>
<g id="Vector">
<use xlink:href="#path2_fill" transform="translate(848 1013.02)" fill="#F2F2F2"/>
</g>
<g id="Vector">
<use xlink:href="#path3_fill" transform="translate(852.46 1010.91)" fill="#334A5E"/>
</g>
<g id="Vector">
<use xlink:href="#path4_fill" transform="translate(878.46 1016.4)" fill="#FF7058"/>
</g>
<g id="Vector">
<use xlink:href="#path5_fill" transform="translate(883.64 1016.4)" fill="#FFD15C"/>
</g>
<g id="Vector">
<use xlink:href="#path6_fill" transform="translate(851.39 1019)" fill="#84DBFF"/>
</g>
<g id="Vector">
<use xlink:href="#path7_fill" transform="translate(851.39 1027.34)" fill="#CDD6E0"/>
</g>
<g id="Group">
<g id="Vector">
<use xlink:href="#path8_fill" transform="translate(851.39 1036.02)" fill="#ACB3BA"/>
</g>
<g id="Vector">
<use xlink:href="#path8_fill" transform="translate(861.86 1036.02)" fill="#ACB3BA"/>
</g>
<g id="Vector">
<use xlink:href="#path9_fill" transform="translate(872.34 1036.02)" fill="#ACB3BA"/>
</g>
<g id="Vector">
<use xlink:href="#path10_fill" transform="translate(882.81 1036.02)" fill="#ACB3BA"/>
</g>
</g>
</g>
</g>
<defs>
<path id="path0_fill" d="M 44.23 0L 2.12 0C 0.95 0 -7.62939e-08 0.95 -7.62939e-08 2.12L -7.62939e-08 20.02L 39.77 20.02C 40.94 20.02 41.89 20.97 41.89 22.14L 41.89 30.78L 44.23 30.78C 45.39 30.78 46.35 29.84 46.35 28.66L 46.35 2.12C 46.35 0.95 45.4 0 44.23 0Z"/>
<path id="path1_fill" d="M 46.35 0L 0 0L 0 5.43L 46.35 5.43L 46.35 0Z"/>
<path id="path2_fill" d="M 44.23 -3.05176e-07L 2.12 -3.05176e-07C 0.95 -3.05176e-07 7.45057e-11 0.949999 7.45057e-11 2.12L 7.45057e-11 28.67C 7.45057e-11 29.84 0.95 30.79 2.12 30.79L 44.23 30.79C 45.4 30.79 46.35 29.84 46.35 28.67L 46.35 2.12C 46.35 0.949999 45.4 -3.05176e-07 44.23 -3.05176e-07Z"/>
<path id="path3_fill" d="M 39.77 6.10352e-07L 1.52588e-07 6.10352e-07L 1.52588e-07 2.11L 39.77 2.11C 40.94 2.11 41.89 3.06 41.89 4.23L 41.89 12.87L 44.01 12.87L 44.01 4.23C 44 1.89 42.1 6.10352e-07 39.77 6.10352e-07Z"/>
<path id="path4_fill" d="M 3.66 7.32C 5.68136 7.32 7.32 5.68136 7.32 3.66C 7.32 1.63864 5.68136 0 3.66 0C 1.63864 0 0 1.63864 0 3.66C 0 5.68136 1.63864 7.32 3.66 7.32Z"/>
<path id="path5_fill" d="M 3.66 7.32C 5.68136 7.32 7.32 5.68136 7.32 3.66C 7.32 1.63864 5.68136 0 3.66 0C 1.63864 0 0 1.63864 0 3.66C 0 5.68136 1.63864 7.32 3.66 7.32Z"/>
<path id="path6_fill" d="M 22.6 0L 0 0L 0 2.13L 22.6 2.13L 22.6 0Z"/>
<path id="path7_fill" d="M 14.07 0L 0 0L 0 2.13L 14.07 2.13L 14.07 0Z"/>
<path id="path8_fill" d="M 8.14 0L 0 0L 0 2.13L 8.14 2.13L 8.14 0Z"/>
<path id="path9_fill" d="M 8.14 0L 0 0L 0 2.13L 8.14 2.13L 8.14 0Z"/>
<path id="path10_fill" d="M 8.14 0L 0 0L 0 2.13L 8.14 2.13L 8.14 0Z"/>
</defs>
</svg>
