<svg width="16" height="16" viewBox="0 0 16 16" version="1.1" xmlns="http://www.w3.org/2000/svg" xmlns:xlink="http://www.w3.org/1999/xlink">
<title>Vector</title>
<desc>Created using Figma</desc>
<g id="Canvas" transform="translate(-2420 -893)">
<g id="Vector">
<use xlink:href="#path0_fill" transform="translate(2420 893)" fill="#FFFFFF"/>
</g>
</g>
<defs>
<path id="path0_fill" d="M 8.92 15.84L 6.92 15.84L 6.92 3.84L 1.42 9.34L -7.62939e-08 7.92L 7.92 -1.52588e-07L 15.84 7.92L 14.42 9.34L 8.92 3.84L 8.92 15.84Z"/>
</defs>
</svg>
