<svg width="50" height="50" viewBox="0 0 50 50" version="1.1" xmlns="http://www.w3.org/2000/svg" xmlns:xlink="http://www.w3.org/1999/xlink">
<title>whatsapp-icon</title>
<desc>Created using Figma</desc>
<g id="Canvas" transform="translate(-980 -842)">
<g id="whatsapp-icon">
<g id="Ellipse 5">
<use xlink:href="#path0_fill" transform="translate(980 842)" fill="url(#paint0_linear)"/>
</g>
<g id="Group">
<g id="Vector">
<use xlink:href="#path1_fill" transform="translate(990.403 851.644)" fill="#FFFFFF"/>
</g>
</g>
</g>
</g>
<defs>
<linearGradient id="paint0_linear" x1="0" y1="0" x2="1" y2="0" gradientUnits="userSpaceOnUse" gradientTransform="matrix(0 50 -50.0001 0 50 -1.84314e-16)">
<stop offset="0" stop-color="#61FD7D"/>
<stop offset="1" stop-color="#2BB826"/>
</linearGradient>
<path id="path0_fill" d="M 50 25C 50 38.8071 38.8071 50 25 50C 11.1929 50 0 38.8071 0 25C 0 11.1929 11.1929 0 25 0C 38.8071 0 50 11.1929 50 25Z"/>
<path id="path1_fill" d="M 25.6359 4.38043C 22.8151 1.55718 19.0636 0.00158674 15.0666 -1.04304e-07C 6.83121 -1.04304e-07 0.128575 6.70007 0.125279 14.9356C 0.124221 17.5681 0.812221 20.1377 2.1197 22.4028L 8.94031e-08 30.1429L 7.9206 28.0659C 10.103 29.2557 12.56 29.8828 15.0607 29.8839L 15.0668 29.8839C 23.3014 29.8839 30.0047 23.183 30.008 14.9474C 30.0096 10.9564 28.4569 7.20367 25.6359 4.38043ZM 15.0668 27.3612L 15.0617 27.3612C 12.8334 27.3604 10.6477 26.762 8.74104 25.6308L 8.28753 25.3618L 3.58733 26.5944L 4.84191 22.0132L 4.54656 21.5435C 3.30345 19.5669 2.6469 17.2822 2.64788 14.9365C 2.65056 8.09157 8.22157 2.52268 15.0716 2.52268C 18.3886 2.52394 21.5066 3.81702 23.8513 6.16355C 26.196 8.51009 27.4865 11.6293 27.4853 14.9465C 27.4826 21.792 21.9116 27.3612 15.0668 27.3612ZM 21.8787 18.0634C 21.5053 17.8766 19.6699 16.9736 19.3276 16.8491C 18.9854 16.7245 18.7366 16.6622 18.4876 17.0359C 18.2388 17.4095 17.5233 18.2502 17.3055 18.4992C 17.0877 18.7483 16.87 18.7795 16.4966 18.5927C 16.1233 18.4059 14.9204 18.0118 13.4944 16.7403C 12.3846 15.7508 11.6353 14.5285 11.4176 14.1548C 11.1998 13.7812 11.3944 13.5793 11.5813 13.3931C 11.7492 13.226 11.9546 12.9572 12.1413 12.7393C 12.3279 12.5214 12.3902 12.3657 12.5146 12.1166C 12.6391 11.8675 12.5768 11.6496 12.4835 11.4628C 12.3902 11.276 11.6435 9.43897 11.3324 8.69172C 11.0294 7.96397 10.7215 8.06244 10.4924 8.05101C 10.2749 8.04018 10.0257 8.0379 9.77688 8.0379C 9.52803 8.0379 9.12355 8.13128 8.78136 8.50492C 8.43917 8.87857 7.47474 9.78148 7.47474 11.6184C 7.47474 13.4554 8.81245 15.2301 8.99913 15.4792C 9.1858 15.7282 11.6316 19.498 15.3767 21.1146C 16.2674 21.4991 16.9628 21.7287 17.505 21.9008C 18.3993 22.1847 19.2132 22.1447 19.8565 22.0486C 20.5737 21.9415 22.0652 21.1458 22.3764 20.274C 22.6875 19.4022 22.6875 18.655 22.5942 18.4993C 22.5008 18.3436 22.252 18.2502 21.8787 18.0634Z"/>
</defs>
</svg>
