<svg width="19" height="19" viewBox="0 0 19 19" version="1.1" xmlns="http://www.w3.org/2000/svg" xmlns:xlink="http://www.w3.org/1999/xlink">
<title>pencil (1)</title>
<desc>Created using Figma</desc>
<g id="Canvas" transform="translate(-5374 322)">
<g id="pencil (1)">
<g id="Vector">
<use xlink:href="#path0_fill" transform="translate(5374 -322)" fill="#EFFFF5"/>
</g>
</g>
</g>
<defs>
<path id="path0_fill" d="M 17.71 4.0425C 18.1 3.6525 18.1 3.0025 17.71 2.6325L 15.37 0.2925C 15 -0.0975 14.35 -0.0975 13.96 0.2925L 12.12 2.1225L 15.87 5.8725L 17.71 4.0425ZM 0 14.2525L 0 18.0025L 3.75 18.0025L 14.81 6.9325L 11.06 3.1825L 0 14.2525Z"/>
</defs>
</svg>
