<svg width="20" height="20" viewBox="0 0 20 20" version="1.1" xmlns="http://www.w3.org/2000/svg" xmlns:xlink="http://www.w3.org/1999/xlink">
<g id="Canvas" transform="translate(-7093 -638)">
<g id="comment_icon">
<use xlink:href="#path0_fill" transform="translate(7093 638)" fill="#2B4704"/>
</g>
</g>
<defs>
<path id="path0_fill" d="M 7 20C 6.73478 20 6.48043 19.8946 6.29289 19.7071C 6.10536 19.5196 6 19.2652 6 19L 6 16L 2 16C 1.46957 16 0.960859 15.7893 0.585786 15.4142C 0.210714 15.0391 4.44089e-16 14.5304 0 14L 0 2C 0 0.89 0.9 0 2 0L 18 0C 18.5304 4.44089e-16 19.0391 0.210714 19.4142 0.585786C 19.7893 0.960859 20 1.46957 20 2L 20 14C 20 14.5304 19.7893 15.0391 19.4142 15.4142C 19.0391 15.7893 18.5304 16 18 16L 11.9 16L 8.2 19.71C 8 19.9 7.75 20 7.5 20L 7 20ZM 8 14L 8 17.08L 11.08 14L 18 14L 18 2L 2 2L 2 14L 8 14ZM 4 5L 16 5L 16 7L 4 7L 4 5ZM 4 9L 13 9L 13 11L 4 11L 4 9Z"/>
</defs>
</svg>
