<svg width="37" height="40" viewBox="0 0 37 40" version="1.1" xmlns="http://www.w3.org/2000/svg" xmlns:xlink="http://www.w3.org/1999/xlink">
<title>logo</title>
<desc>Created using Figma</desc>
<g id="Canvas" transform="translate(-3006 -5401)">
<g id="logo">
<g id="Polygon">
<use xlink:href="#path0_fill" transform="translate(3006 5401)" fill="#2B4704"/>
</g>
<g id="M">
<use xlink:href="#path1_fill" transform="translate(3016.13 5413.39)" fill="#FFFFFF"/>
</g>
</g>
</g>
<defs>
<path id="path0_fill" d="M 17.5342 0.247517C 18.1362 -0.0825057 18.8638 -0.0825057 19.4658 0.247517L 35.9483 9.28256C 36.5966 9.63792 37 10.3209 37 11.0632L 37 28.9368C 37 29.6791 36.5966 30.3621 35.9483 30.7174L 19.4658 39.7525C 18.8638 40.0825 18.1362 40.0825 17.5342 39.7525L 1.05167 30.7174C 0.403384 30.3621 0 29.6791 0 28.9368L 0 11.0632C 0 10.3209 0.403384 9.63792 1.05167 9.28256L 17.5342 0.247517Z"/>
<path id="path1_fill" d="M 3.03416 15.7195L 3.03416 5.20715L 3.20754 5.20715L 7.19529 14.8153L 9.37338 14.8153L 13.3503 5.20715L 13.5237 5.20715L 13.5237 15.7195L 16.5578 15.7195L 16.5578 0L 12.711 0L 8.37644 10.5668L 8.18139 10.5668L 3.85772 0L 0 0L 0 15.7195L 3.03416 15.7195Z"/>
</defs>
</svg>
