<svg width="60" height="54" viewBox="0 0 60 54" version="1.1" xmlns="http://www.w3.org/2000/svg" xmlns:xlink="http://www.w3.org/1999/xlink">
<title>Vector</title>
<desc>Created using Figma</desc>
<g id="Canvas" transform="translate(-6656 -5417)">
<g id="Vector">
<use xlink:href="#path0_fill" transform="translate(6656.59 5417.53)" fill="#E0E0E0"/>
</g>
</g>
<defs>
<path id="path0_fill" d="M 5.88235 5.88235L 14.7059 5.88235L 20.5882 0L 38.2353 0L 44.1176 5.88235L 52.9412 5.88235C 54.5013 5.88235 55.9975 6.5021 57.1006 7.60525C 58.2038 8.70841 58.8235 10.2046 58.8235 11.7647L 58.8235 47.0588C 58.8235 48.6189 58.2038 50.1151 57.1006 51.2183C 55.9975 52.3214 54.5013 52.9412 52.9412 52.9412L 5.88235 52.9412C 4.32226 52.9412 2.82606 52.3214 1.7229 51.2183C 0.619746 50.1151 1.30614e-15 48.6189 0 47.0588L 0 11.7647C -6.53072e-16 10.2046 0.619746 8.70841 1.7229 7.60525C 2.82606 6.5021 4.32226 5.88235 5.88235 5.88235L 5.88235 5.88235ZM 29.4118 14.7059C 25.5115 14.7059 21.771 16.2552 19.0131 19.0131C 16.2552 21.771 14.7059 25.5115 14.7059 29.4118C 14.7059 33.312 16.2552 37.0525 19.0131 39.8104C 21.771 42.5683 25.5115 44.1176 29.4118 44.1176C 33.312 44.1176 37.0525 42.5683 39.8104 39.8104C 42.5683 37.0525 44.1176 33.312 44.1176 29.4118C 44.1176 25.5115 42.5683 21.771 39.8104 19.0131C 37.0525 16.2552 33.312 14.7059 29.4118 14.7059L 29.4118 14.7059ZM 29.4118 20.5882C 31.7519 20.5882 33.9962 21.5179 35.6509 23.1726C 37.3057 24.8273 38.2353 27.0716 38.2353 29.4118C 38.2353 31.7519 37.3057 33.9962 35.6509 35.6509C 33.9962 37.3057 31.7519 38.2353 29.4118 38.2353C 27.0716 38.2353 24.8273 37.3057 23.1726 35.6509C 21.5179 33.9962 20.5882 31.7519 20.5882 29.4118C 20.5882 27.0716 21.5179 24.8273 23.1726 23.1726C 24.8273 21.5179 27.0716 20.5882 29.4118 20.5882L 29.4118 20.5882Z"/>
</defs>
</svg>
